Time Series Pertaining to Postsecondary Enrollment
…
#remove NAs
total_enrollment_dataset <- total_enrollment_dataset %>%
  drop_na(TotalEnrollment)

#aggregate total enrollment by year
yearly_enrollment <- total_enrollment_dataset %>%
  group_by(Year) %>%
  summarise(TotalEnrollment = sum(TotalEnrollment, na.rm = TRUE)) %>%
  ungroup() %>%
  arrange(Year)

na.omit(yearly_enrollment)

# A tibble: 21 × 2
    Year TotalEnrollment
   <int>           <dbl>
 1  2003          584947
 2  2004          591346
 3  2005          592220
 4  2006          594760
 5  2007          603957
 6  2008          626114
 7  2009          677149
 8  2010          708016
 9  2011          704636
10  2012          686100
# ℹ 11 more rows
…
